- website (interface)
- base code
- backend
** api
** market

+--------+
| market |
+--------+
    |
    |
+----------+
| api site |
+----------+
    |
    |
+-----------+
| api user  |
| base code |
+-----------+
    |
    |
 +---------+
+--------+ |
| users  |-+
+--------+

Tasks:
* database
* server (connect to database)
* website interface
* base code
* domain and online


